package com.vtrio.process;


import com.vtrio.model.Account;
import com.vtrio.model.Product;
import function com.vtrio.util.RuleLogUtil.logRule;


rule "Sale Offer"	
	no-loop true
	ruleflow-group "TestJbpmGroup"
		when
	   		productObject : Product(sale==true);
		then
	 	 productObject.setDiscount(15l);	
	  	 logRule("Sale Offer",productObject);
	 	
end

rule "XMAS Offer"
   no-loop true
   ruleflow-group "TestJbpmGroup"
        when 
      		productObject : Product(orderDate != null && orderDate.getDate() == 25 && orderDate.getMonth()==11);
        then
        	productObject.setDiscount(20l);
        	logRule("XMAS Offer",productObject);
    
end

